<?xml version="1.0" encoding="utf-8"?>
<!-- Generator: Adobe Illustrator 19.2.1, SVG Export Plug-In . SVG Version: 6.00 Build 0)  -->
<svg version="1.1" id="Temecula_Escapes_Logo" xmlns="http://www.w3.org/2000/svg" xmlns:xlink="http://www.w3.org/1999/xlink"
	 x="0px" y="0px" viewBox="0 0 269.8 56.1" style="enable-background:new 0 0 269.8 56.1;" xml:space="preserve">

<path id="Temecula" class="st0" d="M16.4,9c0.4,0,0.8,0.3,0.8,0.7c0,0.5-0.2,0.8-0.8,0.8h-7v30.1c0,0.4-0.4,0.8-0.8,0.8
	c-0.5,0-0.8-0.2-0.8-0.8V10.5h-7c-0.4,0-0.7-0.3-0.7-0.8C0.2,9.3,0.5,9,0.9,9H16.4z M21.1,25.9v14h9.4c0.4,0,0.8,0.3,0.8,0.7
	c0,0.5-0.2,0.8-0.8,0.8H20.4c-0.5,0-0.8-0.2-0.8-0.8V9.7c0-0.4,0.3-0.7,0.8-0.7h10.1c0.4,0,0.8,0.3,0.8,0.7c0,0.5-0.2,0.8-0.8,0.8
	h-9.4v13.9h9.4c0.5,0,0.8,0.2,0.8,0.8c0,0.4-0.3,0.7-0.8,0.7H21.1z M52.1,15.2l-7.3,25.7c-0.1,0.3-0.4,0.5-0.8,0.5
	c-0.3,0-0.6-0.2-0.7-0.5l-7.3-25.7v25.4c0,0.5-0.2,0.8-0.8,0.8s-0.8-0.2-0.8-0.8V9.7c0-0.8,1.2-1,1.5-0.2L44,37.9l8.2-28.3
	c0.2-0.8,1.5-0.6,1.5,0.2v30.9c0,0.4-0.4,0.8-0.8,0.8c-0.5,0-0.8-0.2-0.8-0.8V15.2z M58.8,25.9v14h9.4c0.4,0,0.8,0.3,0.8,0.7
	c0,0.5-0.2,0.8-0.8,0.8H58.1c-0.5,0-0.8-0.2-0.8-0.8V9.7c0-0.4,0.3-0.7,0.8-0.7h10.1c0.4,0,0.8,0.3,0.8,0.7c0,0.5-0.2,0.8-0.8,0.8
	h-9.4v13.9h9.4c0.5,0,0.8,0.2,0.8,0.8c0,0.4-0.3,0.7-0.8,0.7H58.8z M72.2,17.6c0-3.5,0.9-5.7,2.3-7S77.5,9,79.1,9
	c1.6,0,3.3,0.3,4.7,1.6s2.3,3.5,2.3,7c0,0.5-0.2,0.8-0.8,0.8s-0.8-0.2-0.8-0.8c0-4.8-1.7-7.1-5.4-7.1c-3.5,0-5.4,2.3-5.4,7.1v15.2
	c0,4.8,1.9,7.1,5.4,7.1c3.6,0,5.4-2.3,5.4-7.1c0-0.5,0.2-0.8,0.8-0.8s0.8,0.2,0.8,0.8c0,3.6-0.9,5.7-2.3,7c-1.3,1.3-3.1,1.6-4.7,1.6
	c-1.5,0-3.3-0.3-4.6-1.6c-1.3-1.3-2.3-3.4-2.3-7V17.6z M88.7,9.7C88.7,9.3,89,9,89.4,9c0.4,0,0.7,0.3,0.7,0.7v23.7
	c0,2.9,0.7,4.5,1.7,5.4c1,0.9,2.2,1.1,3.3,1.1c1,0,2.3-0.1,3.2-1.1s1.7-2.5,1.7-5.4V9.7c0-0.4,0.3-0.7,0.7-0.7
	c0.4,0,0.8,0.3,0.8,0.7v23.7c0,3.3-0.8,5.2-2.1,6.4c-1.2,1.2-2.8,1.5-4.3,1.5c-1.5,0-3-0.3-4.3-1.5c-1.2-1.2-2.2-3.1-2.2-6.4V9.7z
	 M106,41.4c-0.5,0-0.8-0.2-0.8-0.8V9.7c0-0.4,0.3-0.7,0.8-0.7c0.4,0,0.7,0.3,0.7,0.7v30.1h10.1c0.4,0,0.8,0.3,0.8,0.7
	c0,0.5-0.2,0.8-0.8,0.8H106z M135.5,40.5c0.1,0.4-0.2,0.8-0.6,0.9h-0.2c-0.4,0-0.6-0.2-0.7-0.6l-2.2-9.3h-8.5l-2.2,9.3
	c-0.1,0.4-0.5,0.7-0.9,0.6c-0.4-0.1-0.7-0.5-0.6-0.9l7.2-30.9c0.1-0.4,0.3-0.6,0.7-0.6c0.4,0,0.7,0.2,0.8,0.6L135.5,40.5z
	 M127.6,13.1L123.7,30h7.8L127.6,13.1z"/>
<path id="Escapes" class="st1" d="M269,26.7c-2.1,1.3-4.3,3-8.6,5.3c-0.9-2.4-1.9-4.6-1.6-7.1c0.2-1.9,1.6-3.8,3.6-2.5
	c-0.7,2.4-1.2,5.4,0.1,5.5c0.3,0,0.7-0.1,1.2-0.4l0.5-0.4c-1.2-0.5,3.5-8,3.6-8.1l0.1-0.1c0.1-0.1,0.1-0.3,0.1-0.4l0,0v0
	c-0.6-0.5-3.7,0-4.3,0.7c0,0.1-0.1,0.2-0.2,0.3c-0.5-0.2-1.1-0.4-1.6-0.4c-9-0.9-9.5,4.9-8.5,9.8c-3.2,3-9.4,8.8-11.5,8.4
	c-1.4-0.3-1.1-4.3-0.4-5.7c7-1.4,9.5-6.1,9.6-8.4c0.1-2.3-4.6-4.1-6.7-4.1c-2.2,0-5.2,4.7-6.9,9.5c-1.2,0.7-2.5,1.4-3,1.7
	c1.1-3.9,2.2-7.3,1.6-8.5c-2.8-2.6-6.4-3.9-9.2-0.4c0.1-0.2,0.2-0.8,0.3-0.9c0.4-0.7,0.7-1.4-0.6-1.4c-1.8,0-4.2,1-4.9,2.1
	c-0.5,0.8-1.6,4.1-2.7,8.3c-2,2.7-4.9,6.7-5.7,6.7c-1.2-0.1,3.9-14.1,5-15.2c0.9-0.9,0.1-1.9-0.9-1.8c-1.3,0-3.1,0-4.5,1.1
	c-1.5-0.4-4.5-1.4-6.5-1.1c-3.2,0.5-6.1,6.6-7.5,12c-3.4,3.4-8.5,7.9-9.4,6.3c-1.3-2.3,1.9-11.7,5.3-15c-0.8,2.4-1.5,5.2-0.2,5.4
	c0.3,0.1,0.7,0,1.2-0.3l0.5-0.4c-1.1-0.5,4.1-7.7,4.2-7.8c0,0,0.1,0,0.1-0.1c0.1-0.1,0.1-0.3,0.1-0.4l0,0v0
	c-0.6-0.5-3.7-0.2-4.3,0.4c0,0.1-0.1,0.2-0.7,1.5c-0.8-0.7-2.4-1.4-3.9-1.4c-2.2,0-5,4.8-6.6,9.7c-1.4,0.9-3.2,2-5.5,3.3
	c-0.9-2.4-1.9-4.6-1.6-7.1c0.2-1.9,1.6-3.8,3.6-2.5c-0.7,2.4-1.2,5.4,0.1,5.5c0.3,0,0.7-0.1,1.2-0.4l0.5-0.4c-1.2-0.5,3.5-8,3.6-8.1
	l0.1-0.1c0.1-0.1,0.1-0.3,0.1-0.4l0,0v0c-0.6-0.5-3.7,0-4.3,0.7c0,0.1-0.1,0.2-0.2,0.3c-0.5-0.2-1.1-0.4-1.6-0.4
	c-9.3-0.9-9.5,5.4-8.4,10.4c-5.1,5-15,14.4-20.6,11c-6-3.6,7-17.6,15.8-20.8l0.6,0.1c0.2,0,0.8-0.5,1.8-1.4c1-0.9,1.4-1.9,1.4-3.1
	c0-0.6-0.6-0.9-1.9-0.9c-4.1,0-13.6,7.7-12.9,3.1c6.1-3.2,18-5.1,16-13.9c-0.4-1.7-1.6-3.1-4.3-3.1c-6.2,0-14.8,9.5-16.6,15.2
	c-9.4,4.3-15.3,6.3-16.4,9.1c-0.6,1.5-0.3,3.2,2.8,4.8c0.6-2,6.4-5.7,13.8-9.7c1.2,1.3,3,2.5,5.7,1c0,0.2-0.2,0.4-0.5,0.6
	c-4.9,3-12.1,10.8-13.2,16.8c-0.7,4.3,0.7,8.5,6.7,8.9c8.9,0.6,18-10.9,22.3-16.1c0.7,2.3,1.4,4,1.3,4.1c-2,1.6-10,8.3-7,11.3
	c3.9,3.7,17-4.4,12.9-12.9c1.7-1.2,3.1-2,4.3-2.8c-0.6,2.6-0.9,5-0.4,6.6c1,3.6,3.6,3.8,4.5,3.6c3.1-0.5,6.7-3.7,9.7-7.1
	c-0.2,1.3-0.3,2.5-0.1,3.4c0.2,2.2,1.5,3.8,4.4,3.6c1.7,0,3.5-2.4,5.1-4c-0.2,3.3,0,3.8,2.2,4c1.7,0.2,5.3-4,8.1-7.6
	c-1.4,5.8-2.7,12.3-2.9,16.8c-0.1,1.8-0.3,5.5,2.5,5.3c1.2-0.1,2.4-1.1,2.7-2.2c0.1-0.6-0.1-0.6-0.4-0.4c-3,2.4,4.3-23.1,4.8-24.4
	c0.4-1.2,4-7.9,5.9-6.6c0.7,0.5-0.7,6-2,10.1c-7.3,3.9-4.6,8.7-1.4,9c0.8,0.1,1.6,0,2.4-0.6c1.7-1.2,3.3-5.1,4.4-8.5
	c0.5-0.3,1.7-0.9,3-1.7c-0.7,2.7-1,5.3-0.4,7.1c1.2,3.6,3.6,3.9,4.4,3.6c3.5,0,9-6.4,12.7-10.8c0.7,2.7,1.7,4.8,1.5,4.9
	c-2,1.6-10,8.3-7,11.3c3.9,3.7,17-4.4,12.9-12.9c3.5-2.4,5.4-3.4,8.2-5.2C269.5,28.2,269.5,26.7,269,26.7z M247.4,21.8
	c1.1,1.9-0.6,6.7-4.9,7.9C244,26.8,246.2,23.3,247.4,21.8z M170.1,4.6c6.6,0-10.4,7.2-10.8,7.5C161.8,8.4,167.2,4.6,170.1,4.6z
	 M168.8,45c-1.5-1.1,5.3-7.6,6.1-8.1C176.3,41.8,170.7,46.3,168.8,45z M208.2,33.4c-1.2,2.8-3.6,4.7-4.6,4.8
	c-2.1,0.4,2.8-19.2,8.1-16.2C210.8,23.9,208.8,30.1,208.2,33.4z M227,36.1c-0.4,0.9-1,1.6-1.4,1.5c-0.5-0.2-0.1-1,0.6-1.8
	c0.5-0.5,1.1-1.1,1.7-1.5C227.8,34.6,227.4,35.4,227,36.1z M249.5,45c-1.5-1.1,5.3-7.6,6.1-8.1C257,41.8,251.3,46.3,249.5,45z"/>
</svg>
